^C:\USERS\TONI\DOCUMENTS\VISUAL STUDIO 2015\PROJECTS\ICAI9_2\CONSOLEAPPLICATION2\DEBUG\HEADER.OBJ|C:\USERS\TONI\DOCUMENTS\VISUAL STUDIO 2015\PROJECTS\ICAI9_2\CONSOLEAPPLICATION2\DEBUG\SOURCE.OBJ
C:\USERS\TONI\DOCUMENTS\VISUAL STUDIO 2015\PROJECTS\ICAI9_2\DEBUG\CONSOLEAPPLICATION2.ILK
C:\USERS\TONI\DOCUMENTS\VISUAL STUDIO 2015\PROJECTS\ICAI9_2\DEBUG\CONSOLEAPPLICATION2.EXE
C:\USERS\TONI\DOCUMENTS\VISUAL STUDIO 2015\PROJECTS\ICAI9_2\DEBUG\CONSOLEAPPLICATION2.PDB
